{
  "images": [
    {
      "name": "Base",
      "resource": "Base"
    },
    {
      "name": "Flag1",
      "resource": "Flag1"
    },
    {
      "name": "Flag2",
      "resource": "Flag2"
    },
    {
      "name": "Flag3",
      "resource": "Flag3"
    },
    {
      "name": "Flag4",
      "resource": "Flag4"
    },
    {
      "name": "Flag5",
      "resource": "Flag5"
    },
    {
      "name": "Flag6",
      "resource": "Flag6"
    },
    {
      "name": "Flag7",
      "resource": "Flag7"
    },
    {
      "name": "Flag8",
      "resource": "Flag8"
    },
    {
      "name": "Flag9",
      "resource": "Flag9"
    },
    {
      "name": "Flag10",
      "resource": "Flag10"
    },
    {
      "name": "Flag11",
      "resource": "Flag11"
    },
    {
      "name": "Flag12",
      "resource": "Flag12"
    },
    {
      "name": "Flag13",
      "resource": "Flag13"
    },
    {
      "name": "Laser1",
      "resource": "Laser1"
    },
    {
      "name": "Laser2",
      "resource": "Laser2"
    },
    {
      "name": "Laser3",
      "resource": "Laser3"
    },
    {
      "name": "Laser4",
      "resource": "Laser4"
    },
    {
      "name": "Cannon1-1",
      "resource": "Cannon1-1"
    },
    {
      "name": "Cannon1-2",
      "resource": "Cannon1-2"
    },
    {
      "name": "Cannon1-3",
      "resource": "Cannon1-3"
    },
    {
      "name": "Cannon1-4",
      "resource": "Cannon1-4"
    },
    {
      "name": "Cannon1-5",
      "resource": "Cannon1-5"
    },
    {
      "name": "Cannon1-6",
      "resource": "Cannon1-6"
    },
    {
      "name": "Laser1-1",
      "resource": "Laser1-1"
    },
    {
      "name": "Laser1-2",
      "resource": "Laser1-2"
    },
    {
      "name": "Laser1-3",
      "resource": "Laser1-3"
    },
    {
      "name": "Laser1-4",
      "resource": "Laser1-4"
    },
    {
      "name": "Laser1-5",
      "resource": "Laser1-5"
    },
    {
      "name": "Laser1-6",
      "resource": "Laser1-6"
    },
    {
      "name": "Slower1-1",
      "resource": "Slower1-1"
    },
    {
      "name": "Slower1-2",
      "resource": "Slower1-2"
    },
    {
      "name": "Slower1-3",
      "resource": "Slower1-3"
    },
    {
      "name": "Slower1-4",
      "resource": "Slower1-4"
    },
    {
      "name": "Slower1-5",
      "resource": "Slower1-5"
    },
    {
      "name": "Slower1-6",
      "resource": "Slower1-6"
    },
    {
      "name": "Poisen1-1",
      "resource": "Poisen1-1"
    },
    {
      "name": "Poisen1-2",
      "resource": "Poisen1-2"
    },
    {
      "name": "Poisen1-3",
      "resource": "Poisen1-3"
    },
    {
      "name": "Poisen1-4",
      "resource": "Poisen1-4"
    },
    {
      "name": "Poisen1-5",
      "resource": "Poisen1-5"
    },
    {
      "name": "Poisen1-6",
      "resource": "Poisen1-6"
    },
    {
      "name": "Cannon2-1",
      "resource": "Cannon2-1"
    },
    {
      "name": "Cannon2-2",
      "resource": "Cannon2-2"
    },
    {
      "name": "Cannon2-3",
      "resource": "Cannon2-3"
    },
    {
      "name": "Cannon2-4",
      "resource": "Cannon2-4"
    },
    {
      "name": "Cannon2-5",
      "resource": "Cannon2-5"
    },
    {
      "name": "Cannon2-6",
      "resource": "Cannon2-6"
    },
    {
      "name": "Laser2-1",
      "resource": "Laser2-1"
    },
    {
      "name": "Laser2-2",
      "resource": "Laser2-2"
    },
    {
      "name": "Laser2-3",
      "resource": "Laser2-3"
    },
    {
      "name": "Laser2-4",
      "resource": "Laser2-4"
    },
    {
      "name": "Laser2-5",
      "resource": "Laser2-5"
    },
    {
      "name": "Laser2-6",
      "resource": "Laser2-6"
    },
    {
      "name": "Slower2-1",
      "resource": "Slower2-1"
    },
    {
      "name": "Slower2-2",
      "resource": "Slower2-2"
    },
    {
      "name": "Slower2-3",
      "resource": "Slower2-3"
    },
    {
      "name": "Slower2-4",
      "resource": "Slower2-4"
    },
    {
      "name": "Slower2-5",
      "resource": "Slower2-5"
    },
    {
      "name": "Slower2-6",
      "resource": "Slower2-6"
    },
    {
      "name": "Poisen2-1",
      "resource": "Poisen2-1"
    },
    {
      "name": "Poisen2-2",
      "resource": "Poisen2-2"
    },
    {
      "name": "Poisen2-3",
      "resource": "Poisen2-3"
    },
    {
      "name": "Poisen2-4",
      "resource": "Poisen2-4"
    },
    {
      "name": "Poisen2-5",
      "resource": "Poisen2-5"
    },
    {
      "name": "Poisen2-6",
      "resource": "Poisen2-6"
    },
    {
      "name": "Cannon3-1",
      "resource": "Cannon3-1"
    },
    {
      "name": "Cannon3-2",
      "resource": "Cannon3-2"
    },
    {
      "name": "Cannon3-3",
      "resource": "Cannon3-3"
    },
    {
      "name": "Cannon3-4",
      "resource": "Cannon3-4"
    },
    {
      "name": "Cannon3-5",
      "resource": "Cannon3-5"
    },
    {
      "name": "Cannon3-6",
      "resource": "Cannon3-6"
    },
    {
      "name": "Laser3-1",
      "resource": "Laser3-1"
    },
    {
      "name": "Laser3-2",
      "resource": "Laser3-2"
    },
    {
      "name": "Laser3-3",
      "resource": "Laser3-3"
    },
    {
      "name": "Laser3-4",
      "resource": "Laser3-4"
    },
    {
      "name": "Laser3-5",
      "resource": "Laser3-5"
    },
    {
      "name": "Laser3-6",
      "resource": "Laser3-6"
    },
    {
      "name": "Slower3-1",
      "resource": "Slower3-1"
    },
    {
      "name": "Slower3-2",
      "resource": "Slower3-2"
    },
    {
      "name": "Slower3-3",
      "resource": "Slower3-3"
    },
    {
      "name": "Slower3-4",
      "resource": "Slower3-4"
    },
    {
      "name": "Slower3-5",
      "resource": "Slower3-5"
    },
    {
      "name": "Slower3-6",
      "resource": "Slower3-6"
    },
    {
      "name": "Poisen3-1",
      "resource": "Poisen3-1"
    },
    {
      "name": "Poisen3-2",
      "resource": "Poisen3-2"
    },
    {
      "name": "Poisen3-3",
      "resource": "Poisen3-3"
    },
    {
      "name": "Poisen3-4",
      "resource": "Poisen3-4"
    },
    {
      "name": "Poisen3-5",
      "resource": "Poisen3-5"
    },
    {
      "name": "Poisen3-6",
      "resource": "Poisen3-6"
    },
    {
      "name": "Cannon4-1",
      "resource": "Cannon4-1"
    },
    {
      "name": "Cannon4-2",
      "resource": "Cannon4-2"
    },
    {
      "name": "Cannon4-3",
      "resource": "Cannon4-3"
    },
    {
      "name": "Cannon4-4",
      "resource": "Cannon4-4"
    },
    {
      "name": "Cannon4-5",
      "resource": "Cannon4-5"
    },
    {
      "name": "Cannon4-6",
      "resource": "Cannon4-6"
    },
    {
      "name": "Laser4-1",
      "resource": "Laser4-1"
    },
    {
      "name": "Laser4-2",
      "resource": "Laser4-2"
    },
    {
      "name": "Laser4-3",
      "resource": "Laser4-3"
    },
    {
      "name": "Laser4-4",
      "resource": "Laser4-4"
    },
    {
      "name": "Laser4-5",
      "resource": "Laser4-5"
    },
    {
      "name": "Laser4-6",
      "resource": "Laser4-6"
    },
    {
      "name": "Slower4-1",
      "resource": "Slower4-1"
    },
    {
      "name": "Slower4-2",
      "resource": "Slower4-2"
    },
    {
      "name": "Slower4-3",
      "resource": "Slower4-3"
    },
    {
      "name": "Slower4-4",
      "resource": "Slower4-4"
    },
    {
      "name": "Slower4-5",
      "resource": "Slower4-5"
    },
    {
      "name": "Slower4-6",
      "resource": "Slower4-6"
    },
    {
      "name": "Poisen4-1",
      "resource": "Poisen4-1"
    },
    {
      "name": "Poisen4-2",
      "resource": "Poisen4-2"
    },
    {
      "name": "Poisen4-3",
      "resource": "Poisen4-3"
    },
    {
      "name": "Poisen4-4",
      "resource": "Poisen4-4"
    },
    {
      "name": "Poisen4-5",
      "resource": "Poisen4-5"
    },
    {
      "name": "Poisen4-6",
      "resource": "Poisen4-6"
    },
    {
      "name": "Cannon5-1",
      "resource": "Cannon5-1"
    },
    {
      "name": "Cannon5-2",
      "resource": "Cannon5-2"
    },
    {
      "name": "Cannon5-3",
      "resource": "Cannon5-3"
    },
    {
      "name": "Cannon5-4",
      "resource": "Cannon5-4"
    },
    {
      "name": "Cannon5-5",
      "resource": "Cannon5-5"
    },
    {
      "name": "Cannon5-6",
      "resource": "Cannon5-6"
    },
    {
      "name": "Laser5-1",
      "resource": "Laser5-1"
    },
    {
      "name": "Laser5-2",
      "resource": "Laser5-2"
    },
    {
      "name": "Laser5-3",
      "resource": "Laser5-3"
    },
    {
      "name": "Laser5-4",
      "resource": "Laser5-4"
    },
    {
      "name": "Laser5-5",
      "resource": "Laser5-5"
    },
    {
      "name": "Laser5-6",
      "resource": "Laser5-6"
    },
    {
      "name": "Slower5-1",
      "resource": "Slower5-1"
    },
    {
      "name": "Slower5-2",
      "resource": "Slower5-2"
    },
    {
      "name": "Slower5-3",
      "resource": "Slower5-3"
    },
    {
      "name": "Slower5-4",
      "resource": "Slower5-4"
    },
    {
      "name": "Slower5-5",
      "resource": "Slower5-5"
    },
    {
      "name": "Slower5-6",
      "resource": "Slower5-6"
    },
    {
      "name": "Poisen5-1",
      "resource": "Poisen5-1"
    },
    {
      "name": "Poisen5-2",
      "resource": "Poisen5-2"
    },
    {
      "name": "Poisen5-3",
      "resource": "Poisen5-3"
    },
    {
      "name": "Poisen5-4",
      "resource": "Poisen5-4"
    },
    {
      "name": "Poisen5-5",
      "resource": "Poisen5-5"
    },
    {
      "name": "Poisen5-6",
      "resource": "Poisen5-6"
    },
    {
      "name": "Cannon6-1",
      "resource": "Cannon6-1"
    },
    {
      "name": "Cannon6-2",
      "resource": "Cannon6-2"
    },
    {
      "name": "Cannon6-3",
      "resource": "Cannon6-3"
    },
    {
      "name": "Cannon6-4",
      "resource": "Cannon6-4"
    },
    {
      "name": "Cannon6-5",
      "resource": "Cannon6-5"
    },
    {
      "name": "Cannon6-6",
      "resource": "Cannon6-6"
    },
    {
      "name": "Laser6-1",
      "resource": "Laser6-1"
    },
    {
      "name": "Laser6-2",
      "resource": "Laser6-2"
    },
    {
      "name": "Laser6-3",
      "resource": "Laser6-3"
    },
    {
      "name": "Laser6-4",
      "resource": "Laser6-4"
    },
    {
      "name": "Laser6-5",
      "resource": "Laser6-5"
    },
    {
      "name": "Laser6-6",
      "resource": "Laser6-6"
    },
    {
      "name": "Slower6-1",
      "resource": "Slower6-1"
    },
    {
      "name": "Slower6-2",
      "resource": "Slower6-2"
    },
    {
      "name": "Slower6-3",
      "resource": "Slower6-3"
    },
    {
      "name": "Slower6-4",
      "resource": "Slower6-4"
    },
    {
      "name": "Slower6-5",
      "resource": "Slower6-5"
    },
    {
      "name": "Slower6-6",
      "resource": "Slower6-6"
    },
    {
      "name": "Poisen6-1",
      "resource": "Poisen6-1"
    },
    {
      "name": "Poisen6-2",
      "resource": "Poisen6-2"
    },
    {
      "name": "Poisen6-3",
      "resource": "Poisen6-3"
    },
    {
      "name": "Poisen6-4",
      "resource": "Poisen6-4"
    },
    {
      "name": "Poisen6-5",
      "resource": "Poisen6-5"
    },
    {
      "name": "Poisen6-6",
      "resource": "Poisen6-6"
    },
    {
      "name": "Enemy1",
      "resource": "Enemy1"
    },
    {
      "name": "Enemy2",
      "resource": "Enemy2"
    },
    {
      "name": "Enemy3",
      "resource": "Enemy3"
    },
    {
      "name": "Enemy4",
      "resource": "Enemy4"
    },
    {
      "name": "Enemy5",
      "resource": "Enemy5"
    },
    {
      "name": "Enemy6",
      "resource": "Enemy6"
    },
    {
      "name": "Enemy7",
      "resource": "Enemy7"
    },
    {
      "name": "Enemy8",
      "resource": "Enemy8"
    },
    {
      "name": "Enemy9",
      "resource": "Enemy9"
    },
    {
      "name": "Enemy10",
      "resource": "Enemy10"
    },
    {
      "name": "Enemy11",
      "resource": "Enemy11"
    },
    {
      "name": "shoot",
      "resource": "shoot"
    },
    {
      "name": "shoot1",
      "resource": "shoot1"
    },
    {
      "name": "shoot2",
      "resource": "shoot2"
    },
    {
      "name": "shoot3",
      "resource": "shoot3"
    },
    {
      "name": "shoot4",
      "resource": "shoot4"
    },
    {
      "name": "bullet",
      "resource": "greenbullet"
    },
    {
      "name": "boss",
      "resource": "boss"
    },
    {
      "name": "wall",
      "resource": "wall"
    },
    {
      "name": "loose",
      "resource": "loose2"
    },
    {
      "name": "bg",
      "resource": "BG"
    },
    {
      "name": "bg0",
      "resource": "bg/bg000"
    },
    {
      "name": "bg1",
      "resource": "bg/bg001"
    },
    {
      "name": "bg2",
      "resource": "bg/bg002"
    },
    {
      "name": "bg3",
      "resource": "bg/bg003"
    },
    {
      "name": "bg4",
      "resource": "bg/bg004"
    },
    {
      "name": "bg5",
      "resource": "bg/bg005"
    },
    {
      "name": "bg6",
      "resource": "bg/bg006"
    },
    {
      "name": "bg7",
      "resource": "bg/bg007"
    },
    {
      "name": "bg8",
      "resource": "bg/bg008"
    },
    {
      "name": "bg9",
      "resource": "bg/bg009"
    },
    {
      "name": "bg10",
      "resource": "bg/bg010"
    },
    {
      "name": "bg11",
      "resource": "bg/bg011"
    },
    {
      "name": "bg12",
      "resource": "bg/bg012"
    },
    {
      "name": "bg13",
      "resource": "bg/bg013"
    },
    {
      "name": "bg14",
      "resource": "bg/bg014"
    },
    {
      "name": "bg15",
      "resource": "bg/bg015"
    },
    {
      "name": "bg16",
      "resource": "bg/bg016"
    },
    {
      "name": "bg17",
      "resource": "bg/bg017"
    },
    {
      "name": "bg18",
      "resource": "bg/bg018"
    },
    {
      "name": "bg19",
      "resource": "bg/bg019"
    },
    {
      "name": "bg20",
      "resource": "bg/bg020"
    },
    {
      "name": "bg21",
      "resource": "bg/bg021"
    },
    {
      "name": "bg22",
      "resource": "bg/bg022"
    },
    {
      "name": "bg23",
      "resource": "bg/bg023"
    },
    {
      "name": "bg24",
      "resource": "bg/bg024"
    },
    {
      "name": "bg25",
      "resource": "bg/bg025"
    },
    {
      "name": "bg26",
      "resource": "bg/bg026"
    },
    {
      "name": "bg27",
      "resource": "bg/bg027"
    },
    {
      "name": "bg28",
      "resource": "bg/bg028"
    },
    {
      "name": "bg29",
      "resource": "bg/bg029"
    },
    {
      "name": "bg30",
      "resource": "bg/bg030"
    },
    {
      "name": "bg31",
      "resource": "bg/bg031"
    },
    {
      "name": "bg32",
      "resource": "bg/bg032"
    },
    {
      "name": "bg33",
      "resource": "bg/bg033"
    },
    {
      "name": "bg34",
      "resource": "bg/bg034"
    },
    {
      "name": "bg35",
      "resource": "bg/bg035"
    },
    {
      "name": "bg36",
      "resource": "bg/bg036"
    },
    {
      "name": "bg37",
      "resource": "bg/bg037"
    },
    {
      "name": "bg38",
      "resource": "bg/bg038"
    },
    {
      "name": "bg39",
      "resource": "bg/bg039"
    },
    {
      "name": "bg40",
      "resource": "bg/bg040"
    },
    {
      "name": "bg41",
      "resource": "bg/bg041"
    },
    {
      "name": "bg42",
      "resource": "bg/bg042"
    },
    {
      "name": "bg43",
      "resource": "bg/bg043"
    },
    {
      "name": "bg44",
      "resource": "bg/bg044"
    },
    {
      "name": "bg45",
      "resource": "bg/bg045"
    },
    {
      "name": "bg46",
      "resource": "bg/bg046"
    },
    {
      "name": "bg47",
      "resource": "bg/bg047"
    },
    {
      "name": "bg48",
      "resource": "bg/bg048"
    },
    {
      "name": "bg49",
      "resource": "bg/bg049"
    },
    {
      "name": "bg50",
      "resource": "bg/bg050"
    },
    {
      "name": "bg51",
      "resource": "bg/bg051"
    },
    {
      "name": "bg52",
      "resource": "bg/bg052"
    },
    {
      "name": "bg53",
      "resource": "bg/bg053"
    },
    {
      "name": "bg54",
      "resource": "bg/bg054"
    },
    {
      "name": "bg55",
      "resource": "bg/bg055"
    },
    {
      "name": "bg56",
      "resource": "bg/bg056"
    },
    {
      "name": "bg57",
      "resource": "bg/bg057"
    },
    {
      "name": "bg58",
      "resource": "bg/bg058"
    },
    {
      "name": "bg59",
      "resource": "bg/bg059"
    },
    {
      "name": "bg60",
      "resource": "bg/bg060"
    },
    {
      "name": "bg61",
      "resource": "bg/bg061"
    },
    {
      "name": "bg62",
      "resource": "bg/bg062"
    },
    {
      "name": "bg63",
      "resource": "bg/bg063"
    },
    {
      "name": "bg64",
      "resource": "bg/bg064"
    },
    {
      "name": "bg65",
      "resource": "bg/bg065"
    },
    {
      "name": "bg66",
      "resource": "bg/bg066"
    },
    {
      "name": "bg67",
      "resource": "bg/bg067"
    },
    {
      "name": "bg68",
      "resource": "bg/bg068"
    },
    {
      "name": "bg69",
      "resource": "bg/bg069"
    },
    {
      "name": "bg70",
      "resource": "bg/bg070"
    },
    {
      "name": "bg71",
      "resource": "bg/bg071"
    },
    {
      "name": "bg72",
      "resource": "bg/bg072"
    },
    {
      "name": "bg73",
      "resource": "bg/bg073"
    },
    {
      "name": "bg74",
      "resource": "bg/bg074"
    },
    {
      "name": "bg75",
      "resource": "bg/bg075"
    },
    {
      "name": "bg76",
      "resource": "bg/bg076"
    },
    {
      "name": "bg77",
      "resource": "bg/bg077"
    },
    {
      "name": "bg78",
      "resource": "bg/bg078"
    },
    {
      "name": "bg79",
      "resource": "bg/bg079"
    },
    {
      "name": "bg80",
      "resource": "bg/bg080"
    },
    {
      "name": "bg81",
      "resource": "bg/bg081"
    },
    {
      "name": "bg82",
      "resource": "bg/bg082"
    },
    {
      "name": "bg83",
      "resource": "bg/bg083"
    },
    {
      "name": "bg84",
      "resource": "bg/bg084"
    },
    {
      "name": "bg85",
      "resource": "bg/bg085"
    },
    {
      "name": "bg86",
      "resource": "bg/bg086"
    },
    {
      "name": "bg87",
      "resource": "bg/bg087"
    },
    {
      "name": "bg88",
      "resource": "bg/bg088"
    },
    {
      "name": "bg89",
      "resource": "bg/bg089"
    },
    {
      "name": "bg90",
      "resource": "bg/bg090"
    },
    {
      "name": "bg91",
      "resource": "bg/bg091"
    },
    {
      "name": "bg92",
      "resource": "bg/bg092"
    },
    {
      "name": "bg93",
      "resource": "bg/bg093"
    },
    {
      "name": "bg94",
      "resource": "bg/bg094"
    },
    {
      "name": "bg95",
      "resource": "bg/bg095"
    },
    {
      "name": "bg96",
      "resource": "bg/bg096"
    },
    {
      "name": "bg97",
      "resource": "bg/bg097"
    },
    {
      "name": "bg98",
      "resource": "bg/bg098"
    },
    {
      "name": "bg99",
      "resource": "bg/bg099"
    },
    {
      "name": "bg100",
      "resource": "bg/bg100"
    },
    {
      "name": "bg101",
      "resource": "bg/bg101"
    },
    {
      "name": "bg102",
      "resource": "bg/bg102"
    },
    {
      "name": "bg103",
      "resource": "bg/bg103"
    },
    {
      "name": "bg104",
      "resource": "bg/bg104"
    },
    {
      "name": "bg105",
      "resource": "bg/bg105"
    },
    {
      "name": "bg106",
      "resource": "bg/bg106"
    },
    {
      "name": "bg107",
      "resource": "bg/bg107"
    },
    {
      "name": "bg108",
      "resource": "bg/bg108"
    },
    {
      "name": "bg109",
      "resource": "bg/bg109"
    },
    {
      "name": "bg110",
      "resource": "bg/bg110"
    },
    {
      "name": "bg111",
      "resource": "bg/bg111"
    },
    {
      "name": "bg112",
      "resource": "bg/bg112"
    },
    {
      "name": "bg113",
      "resource": "bg/bg113"
    },
    {
      "name": "bg114",
      "resource": "bg/bg114"
    },
    {
      "name": "bg115",
      "resource": "bg/bg115"
    }
  ],
  "audio": [
    {
      "name": "cyberbg",
      "resource": "Audio/cyberBackground.mp3"
    }
  ]
}