{
  "upgrades": [
    {
      "id": 0,
      "name": "Base",
      "level": 0,
      "image": "Base",
      "cost": 0,
      "minDamage": 0,
      "maxDamage": 0,
      "attackSpeed": 0.0,
      "nextUpgrade": [
        1,
        12
      ]
    },
    {
      "id": 1,
      "name": "Cannon1-1",
      "level": 1,
      "image": "Cannon1-1",
      "cost": 50,
      "minDamage": 10,
      "maxDamage": 15,
      "attackSpeed": 0.5,
      "nextUpgrade": [
        2
      ]
    },
    {
      "id": 2,
      "name": "Cannon1-2",
      "level": 2,
      "image": "Cannon1-2",
      "cost": 70,
      "minDamage": 15,
      "maxDamage": 20,
      "attackSpeed": 0.7,
      "nextUpgrade": [
        3
      ]
    },
    {
      "id": 3,
      "name": "Flag3",
      "level": 3,
      "image": "Flag3",
      "cost": 100,
      "minDamage": 20,
      "maxDamage": 35,
      "attackSpeed": 0.9,
      "nextUpgrade": [
        4
      ]
    },
    {
      "id": 4,
      "name": "Cannon1-3",
      "level": 4,
      "image": "Cannon1-3",
      "cost": 150,
      "minDamage": 40,
      "maxDamage": 50,
      "attackSpeed": 1.1,
      "nextUpgrade": [
        5
      ]
    },
    {
      "id": 5,
      "name": "Flag5",
      "level": 5,
      "image": "Flag5",
      "cost": 200,
      "minDamage": 50,
      "maxDamage": 60,
      "attackSpeed": 1.3,
      "nextUpgrade": [
        6
      ]
    },
    {
      "id": 6,
      "name": "Flag6",
      "level": 6,
      "image": "Flag6",
      "cost": 600,
      "minDamage": 70,
      "maxDamage": 80,
      "attackSpeed": 1.5,
      "nextUpgrade": [
        7
      ]
    },
    {
      "id": 7,
      "name": "Flag7",
      "level": 6,
      "image": "Flag7",
      "cost": 400,
      "minDamage": 70,
      "maxDamage": 80,
      "attackSpeed": 1.7,
      "nextUpgrade": [
        8
      ]
    },
    {
      "id": 8,
      "name": "Flag8",
      "level": 6,
      "image": "Flag8",
      "cost": 800,
      "minDamage": 70,
      "maxDamage": 80,
      "attackSpeed": 1.9,
      "nextUpgrade": [
        9
      ]
    },
    {
      "id": 9,
      "name": "Flag9",
      "level": 6,
      "image": "Flag9",
      "cost": 1200,
      "minDamage": 70,
      "maxDamage": 80,
      "attackSpeed": 2.1,
      "nextUpgrade": [
        10
      ]
    },
    {
      "id": 10,
      "name": "Flag10",
      "level": 6,
      "image": "Flag10",
      "cost": 1600,
      "minDamage": 70,
      "maxDamage": 80,
      "attackSpeed": 2.3,
      "nextUpgrade": [
        11
      ]
    },
    {
      "id": 11,
      "name": "Flag11",
      "level": 6,
      "image": "Flag11",
      "cost": 2400,
      "minDamage": 70,
      "maxDamage": 80,
      "attackSpeed": 2.5,
      "nextUpgrade": [
      ]
    },
    {
      "id": 12,
      "name": "Laser1-1",
      "level": 1,
      "image": "Laser1-1",
      "cost": 100,
      "minDamage": 1,
      "maxDamage": 2,
      "attackSpeed": 5.0,
      "nextUpgrade": [
        13
      ]
    },
    {
      "id": 13,
      "name": "Laser1-2",
      "level": 1,
      "image": "Laser1-2",
      "cost": 300,
      "minDamage": 2,
      "maxDamage": 4,
      "attackSpeed": 7.5,
      "nextUpgrade": [
        14
      ]
    },
    {
      "id": 14,
      "name": "Laser1-3",
      "level": 1,
      "image": "Laser1-3",
      "cost": 600,
      "minDamage": 4,
      "maxDamage": 8,
      "attackSpeed": 10.0,
      "nextUpgrade": [
        15
      ]
    },
    {
      "id": 15,
      "name": "Laser4",
      "level": 1,
      "image": "Laser4",
      "cost": 900,
      "minDamage": 8,
      "maxDamage": 16,
      "attackSpeed": 12.5,
      "nextUpgrade": [
      ]
    }
  ]
}
